{
    "users": {
        "root": {
            "configs": {
                "ajenti.plugins.fm.fm.FileManager": "{\"root\": \"/\"}", 
                "ajenti.plugins.terminal.main.Terminals": "{\"shell\": \"sh -c $SHELL\"}", 
                "ajenti.plugins.munin.client.MuninClient": "{\"username\": \"username\", \"prefix\": \"http://localhost:8080/munin\", \"password\": \"123\"}", 
                "ajenti.plugins.dashboard.dash.Dash": "{\"widgets\": [{\"index\": 0, \"config\": null, \"container\": \"0\", \"class\": \"ajenti.plugins.dashboard.welcome.WelcomeWidget\"}]}", 
                "ajenti.plugins.ajenti_org.main.AjentiOrgReporter": "{\"key\": \"123\"}", 
                "ajenti.plugins.mysql.main.MySQLPlugin": "{\"password\": \"1234\", \"user\": \"root\"}", 
                "ajenti.plugins.notepad.notepad.Notepad": "{\"bookmarks\": [\"/etc/logrotate.conf\"]}", 
                "ajenti.plugins.elements.projects.main.ElementsProjectManager": "{\"projects\": \"(lp1\\nccopy_reg\\n_reconstructor\\np2\\n(cajenti.plugins.elements.projects.main\\nElementsProject\\np3\\nc__builtin__\\nobject\\np4\\nNtRp5\\n(dp6\\nS'quota_size_soft'\\np7\\nI0\\nsS'description'\\np8\\nS''\\nsS'name'\\np9\\nVtest\\np10\\nsS'quota_size_hard'\\np11\\nI0\\nsS'lock'\\np12\\nNsS'long_description'\\np13\\nS''\\nsS'emulate_avid'\\np14\\nI00\\nsS'directory'\\np15\\nS'test'\\np16\\nsS'path'\\np17\\nV/home/eugeny/Documents\\np18\\nsS'share_nfs'\\np19\\nI00\\nsS'share_smb'\\np20\\nI00\\nsS'share_afp'\\np21\\nI00\\nsS'permissions'\\np22\\n(lp23\\ng2\\n(cajenti.plugins.elements.projects.main\\nElementsProjectPermission\\np24\\ng4\\nNtRp25\\n(dp26\\nS'project'\\np27\\nNsS'user'\\np28\\nS'root'\\np29\\nsbasba.\"}"
            }, 
            "password": "sha512|$6$rounds=40000$nIVrqqz638rB8wOo$VbMv8y2lStgcsYxEuu7JfHiEd06eeiSoIbg7Hvivj9K1vPayaCbAiAqtpyOoIkNfIXFmMD0jK6Dd4WFnvywkY1", 
            "permissions": [
                "section:Dash"
            ]
        }
    }, 
    "bind": {
        "host": "0.0.0.0", 
        "port": 9037
    }, 
    "authentication": false, 
    "ssl": {
        "enable": false, 
        "certificate_path": "/home/eugeny/ajenti.pem"
    }, 
    "enable_feedback": true, 
    "configs": {
        "ajenti.plugins.ajenti_org.main.AjentiOrgReporter": "{\"key\": \"123\"}"
    }, 
    "installation_id": 1
}
